{
    "idp_notlisted": {
        "nl": "Als je instelling niet in het keuzemenu staat neem dan contact op met de IT-afdeling van je instelling. Kijk <a href=\"http:\/\/www.surfnet.nl\/nl\/Thema\/surffederatie\/Pages\/Default.aspx\">hier<\/a> voor meer informatie."
    }

}

